%YAML 1.1
%TAG !u! tag:unity3d.com,2011:
--- !u!114 &11400000
MonoBehaviour:
  m_ObjectHideFlags: 0
  m_CorrespondingSourceObject: {fileID: 0}
  m_PrefabInstance: {fileID: 0}
  m_PrefabAsset: {fileID: 0}
  m_GameObject: {fileID: 0}
  m_Enabled: 1
  m_EditorHideFlags: 0
  m_Script: {fileID: 11500000, guid: 26d4a26ba7c6c3c48aaa537a58edab46, type: 3}
  m_Name: EnemicBasic
  m_EditorClassIdentifier: 
  m_Nom: EnemicBasic
  m_Speed: 3
  m_Health: 1
  m_Coin: 2
