%YAML 1.1
%TAG !u! tag:unity3d.com,2011:
--- !u!114 &11400000
MonoBehaviour:
  m_ObjectHideFlags: 0
  m_CorrespondingSourceObject: {fileID: 0}
  m_PrefabInstance: {fileID: 0}
  m_PrefabAsset: {fileID: 0}
  m_GameObject: {fileID: 0}
  m_Enabled: 1
  m_EditorHideFlags: 0
  m_Script: {fileID: 11500000, guid: 36c63a142581277419c33d6b32c96cb9, type: 3}
  m_Name: TowerA
  m_EditorClassIdentifier: 
  m_TowerName: TowerBasic
  m_Price: 10
  m_Sprite: {fileID: 21300000, guid: ea852a990c1aac44083f093c11ca87f0, type: 3}
  m_TowerRange: 3
  m_TowerSpeed: 2
  m_Bullet: {fileID: 6974730190268506642, guid: 265f6966d2a88e64687d81df7ece31e6, type: 3}
